Datos Dengue 2020 en sivirep — dengue2020 • sivirep
…
    Código: R/dengue2020.R
    dengue2020.Rd

    Data from

dengue2020

    Formato

    An object of class "cross"; see read.cross.

    Examples

dengue2020
#> # A tibble: 65,535 × 74
#>    Partición      CONSECUTIVE COD_EVE FEC_NOT SEMANA ANO   COD_PRE COD_SUB EDAD 
#>    <chr>          <chr>       <chr>   <chr>   <chr>  <chr> <chr>   <chr>   <chr>
#>  1 Datos_2020_210 7232769     210     2020-0… 09     2020  680010… 01      15   
#>  2 Datos_2020_210 7232770     210     2020-0… 05     2020  501100… 11      4    
#>  3 Datos_2020_210 7232771     210     2020-0… 09     2020  760010… 11      15   
#>  4 Datos_2020_210 7232772     210     2020-0… 03     2020  200010… 01      10   
#>  5 Datos_2020_210 7232773     210     2020-0… 20     2020  850010… 03      10   
#>  6 Datos_2020_210 7232774     210     2020-0… 15     2020  768950… 01      9    
#>  7 Datos_2020_210 7232775     210     2020-0… 11     2020  760360… 01      2    
#>  8 Datos_2020_210 7232776     210     2020-0… 18     2020  760010… 01      4    
#>  9 Datos_2020_210 7232777     210     2020-0… 31     2020  768950… 01      2    
#> 10 Datos_2020_210 7232778     210     2020-0… 25     2020  762480… 01      5    
#> # ℹ 65,525 more rows
#> # ℹ 65 more variables: UNI_MED <chr>, nacionalidad <chr>,
#> #   nombre_nacionalidad <chr>, SEXO <chr>, COD_PAIS_O <chr>, COD_DPTO_O <chr>,
#> #   COD_MUN_O <chr>, AREA <chr>, OCUPACION <chr>, TIP_SS <chr>, COD_ASE <chr>,
#> #   PER_ETN <chr>, GRU_POB <lgl>, nom_grupo <chr>, estrato <chr>,
#> #   GP_DISCAPA <chr>, GP_DESPLAZ <chr>, GP_MIGRANT <chr>, GP_CARCELA <chr>,
#> #   GP_GESTAN <chr>, sem_ges <chr>, GP_INDIGEN <chr>, GP_POBICFB <chr>, …
…
