Importar la población a riesgo de un evento o enfermedad — import_pob_riesgo • sivirep
…
cache
Un `logical` (`TRUE` o `FALSE`) que indica si la población a
riesgo o las proyecciones poblacionales DANE descargadas deben ser
almacenados en caché. Su valor por defecto es `FALSE`.

    Valor

    Un `data.frame` con la población a riesgo de un año específico.

    Ejemplos

# \donttest{
import_pob_riesgo(event = "Dengue", year = 2020, ruta_dir = tempdir())
#> # A tibble: 1,122 × 5
#>    cod_dpto nombre_departamento cod_mpio nombre_municipio poblacion_riesgo_2020
#>    <chr>    <chr>               <chr>    <chr>                            <dbl>
#>  1 05       Antioquia           05001    Medellín                       2533424
#>  2 05       Antioquia           05002    Abejorral                            0
#>  3 05       Antioquia           05004    Abriaquí                             0
#>  4 05       Antioquia           05021    Alejandría                           0
#>  5 05       Antioquia           05030    Amagá                            31283
#>  6 05       Antioquia           05031    Amalfi                           15599
#>  7 05       Antioquia           05034    Andes                            44199
#>  8 05       Antioquia           05036    Angelópolis                       2331
#>  9 05       Antioquia           05038    Angostura                            0
#> 10 05       Antioquia           05040    Anorí                             8335
#> # ℹ 1,112 more rows
…
