Obtener información geográfica de los datos de la enfermedad o evento — obtener_info_depts • sivirep
…
mpio
Un `character` (cadena de caracteres) o `numeric` (numerico)
que contiene los datos del municipio; su valor por defecto es `NULL`

    Valor

Un `data.frame` con la información geográfica de los datos de
la enfermedad o evento

    Examples

obtener_info_depts(dpto = "ANTIOQUIA")
#> # A tibble: 125 × 5
#>    codigo_departamento codigo_municipio nombre_departamento nombre_municipio
#>    <chr>               <chr>            <chr>               <chr>           
#>  1 05                  05001            antioquia           medellin        
#>  2 05                  05002            antioquia           abejorral       
#>  3 05                  05004            antioquia           abriaqui        
#>  4 05                  05021            antioquia           alejandria      
#>  5 05                  05030            antioquia           amaga           
#>  6 05                  05031            antioquia           amalfi          
#>  7 05                  05034            antioquia           andes           
#>  8 05                  05036            antioquia           angelopolis     
#>  9 05                  05038            antioquia           angostura       
#> 10 05                  05040            antioquia           anori           
#> # ℹ 115 more rows
#> # ℹ 1 more variable: tipo_municipio_isla_area_no_municipalizada <chr>
obtener_info_depts(dpto = "ANTIOQUIA", mpio = "MEDELLIN")
#> # A tibble: 1 × 5
#>   codigo_departamento codigo_municipio nombre_departamento nombre_municipio
#>   <chr>               <chr>            <chr>               <chr>           
#> 1 05                  05001            antioquia           medellin        
#> # ℹ 1 more variable: tipo_municipio_isla_area_no_municipalizada <chr>
obtener_info_depts(dpto = "05")
#> # A tibble: 125 × 5
#>    codigo_departamento codigo_municipio nombre_departamento nombre_municipio
#>    <chr>               <chr>            <chr>               <chr>           
#>  1 05                  05001            antioquia           medellin        
#>  2 05                  05002            antioquia           abejorral       
#>  3 05                  05004            antioquia           abriaqui        
#>  4 05                  05021            antioquia           alejandria      
#>  5 05                  05030            antioquia           amaga           
#>  6 05                  05031            antioquia           amalfi          
#>  7 05                  05034            antioquia           andes           
#>  8 05                  05036            antioquia           angelopolis     
#>  9 05                  05038            antioquia           angostura       
#> 10 05                  05040            antioquia           anori           
#> # ℹ 115 more rows
#> # ℹ 1 more variable: tipo_municipio_isla_area_no_municipalizada <chr>
…
