Importar datos geográficos de Colombia — import_geo_cods • sivirep
…
    descargar
Un `boolean` (TRUE o FALSE) que indica si los datos
se deben descargar desde la API de datos abiertos; su valor por
defecto es `FALSE`

    Valor

Un `data.frame` con los nombres y códigos de los departamentos
y municipios de Colombia

    Ejemplos

import_geo_cods(descargar = FALSE)
#> # A tibble: 1,121 × 5
#>    codigo_departamento codigo_municipio nombre_departamento nombre_municipio
#>    <chr>               <chr>            <chr>               <chr>           
#>  1 05                  05001            antioquia           medellin        
#>  2 05                  05002            antioquia           abejorral       
#>  3 05                  05004            antioquia           abriaqui        
#>  4 05                  05021            antioquia           alejandria      
#>  5 05                  05030            antioquia           amaga           
#>  6 05                  05031            antioquia           amalfi          
#>  7 05                  05034            antioquia           andes           
#>  8 05                  05036            antioquia           angelopolis     
#>  9 05                  05038            antioquia           angostura       
#> 10 05                  05040            antioquia           anori           
#> # ℹ 1,111 more rows
#> # ℹ 1 more variable: tipo_municipio_isla_area_no_municipalizada <chr>
…
