Importar la población para efectuar el cálculo de la incidencia — import_pob_incidencia • sivirep
…
year
Un `numeric` (numerico) con el año deseado de la población a
riesgo. Es obligatorio para importar la población a riesgo

    Valor

Un `data.frame` con la población a riesgo o las proyecciones
poblacionaldes DANE

    Ejemplos

 # \donttest{
import_pob_incidencia(poblacion = "proyecciones")
#> # A tibble: 8,974,014 × 10
#>    dp    dpnom     dpmp   mpio    ano area_geografica grupo_edad hombres mujeres
#>    <chr> <chr>     <chr>  <chr> <dbl> <chr>           <chr>        <dbl>   <dbl>
#>  1 05    Antioquia Medel… 05001  2005 Cabecera Munic… 0            13812   13369
#>  2 05    Antioquia Medel… 05001  2005 Cabecera Munic… 1            14233   13808
#>  3 05    Antioquia Medel… 05001  2005 Cabecera Munic… 2            14680   14284
#>  4 05    Antioquia Medel… 05001  2005 Cabecera Munic… 3            15148   14776
#>  5 05    Antioquia Medel… 05001  2005 Cabecera Munic… 4            15598   15239
#>  6 05    Antioquia Medel… 05001  2005 Cabecera Munic… 5            16019   15697
#>  7 05    Antioquia Medel… 05001  2005 Cabecera Munic… 6            16472   16194
#>  8 05    Antioquia Medel… 05001  2005 Cabecera Munic… 7            16864   16657
#>  9 05    Antioquia Medel… 05001  2005 Cabecera Munic… 8            17213   17077
#> 10 05    Antioquia Medel… 05001  2005 Cabecera Munic… 9            17473   17399
#> # ℹ 8,974,004 more rows
#> # ℹ 1 more variable: total <dbl>
import_pob_incidencia(poblacion = "riesgo", event = "dengue", year = 2020)
#> # A tibble: 1,122 × 7
#>    cod_dpto nombre_departamento cod_mpio nombre_municipio poblacion_riesgo_2022
#>    <chr>    <chr>               <chr>    <chr>            <chr>                
#>  1 05       Antioquia           05001    Medellín         2612958              
#>  2 05       Antioquia           05002    Abejorral        0                    
#>  3 05       Antioquia           05004    Abriaquí         0                    
#>  4 05       Antioquia           05021    Alejandría       0                    
#>  5 05       Antioquia           05030    Amagá            32259                
#>  6 05       Antioquia           05031    Amalfi           16614                
#>  7 05       Antioquia           05034    Andes            45577                
#>  8 05       Antioquia           05036    Angelópolis      2563                 
#>  9 05       Antioquia           05038    Angostura        0                    
#> 10 05       Antioquia           05040    Anorí            9090                 
#> # ℹ 1,112 more rows
#> # ℹ 2 more variables: poblacion_riesgo_2021 <chr>, poblacion_riesgo_2020 <dbl>
…
